{
  "assignee": [
    {
      "name": "case.assignee",
      "key": "displayname",
      "sub_group": "properties",
      "human_label": "Behandelaar",
      "attribute_type": "text"
    },
    {
      "name": "case.assignee.last_name",
      "key": "sn",
      "sub_group": "properties",
      "human_label": "Behandelaar Achternaam",
      "attribute_type": "text"
    },
    {
      "name": "assignee",
      "key": "uuid",
      "sub_group": "subject",
      "human_label": "Behandelaar ID",
      "attribute_type": "text"
    },
    {
      "name": "case.assignee.phone_number",
      "key": "telephonenumber",
      "sub_group": "properties",
      "human_label": "Behandelaar telefoonnummer",
      "attribute_type": "text"
    },
    {
      "name": "case.assignee.email",
      "key": "mail",
      "sub_group": "properties",
      "human_label": "Behandelaar e-mail",
      "attribute_type": "text"
    },
    {
      "name": "case.assignee.first_names",
      "key": "givenname",
      "sub_group": "properties",
      "human_label": "Behandelaar Voornaam",
      "attribute_type": "text"
    },
    {
      "name": "case.assignee.id",
      "key": "id",
      "sub_group": "subject",
      "human_label": "Behandelaarnummer",
      "attribute_type": "integer"
    },
    {
      "name": "case.assignee.department",
      "key": "name",
      "sub_group": "group",
      "human_label": "Behandelaar afdeling",
      "attribute_type": "text"
    },
    {
      "name": "case.assignee.title",
      "key": "title",
      "sub_group": "properties",
      "human_label": "Behandelaar functie",
      "attribute_type": "text"
    }
  ],
  "coordinator": [
    {
      "name": "case.coordinator",
      "key": "displayname",
      "sub_group": "properties",
      "human_label": "Coordinator",
      "attribute_type": "text"
    },
    {
      "name": "coordinator",
      "key": "uuid",
      "sub_group": "subject",
      "human_label": "Coordinator ID",
      "attribute_type": "text"
    },
    {
      "name": "case.coordinator.phone_number",
      "key": "telephonenumber",
      "sub_group": "properties",
      "human_label": "Coordinator telefoonummer",
      "attribute_type": "text"
    },
    {
      "name": "case.coordinator.email",
      "key": "mail",
      "sub_group": "properties",
      "human_label": "Coordinator e-mail",
      "attribute_type": "text"
    },
    {
      "name": "case.coordinator.id",
      "key": "id",
      "sub_group": "subject",
      "human_label": "Coordinatornummer",
      "attribute_type": "integer"
    },
    {
      "name": "case.coordinator.title",
      "key": "title",
      "sub_group": "properties",
      "human_label": "Coordinator functie",
      "attribute_type": "text"
    }
  ],
  "suspension_rationale": [
    {
      "name": "case.suspension_rationale",
      "key": "suspension_rationale",
      "sub_group": "suspension_rationale",
      "human_label": "Reden opschorting",
      "attribute_type": "text"
    }
  ],
  "date_stalled_until": [
    {
      "name": "case.stalled_until",
      "key": "date_stalled_until",
      "sub_group": "date_stalled_until",
      "human_label": "Opgeschort tot",
      "attribute_type": "date"
    }
  ],
  "date_stalled_since": [
    {
      "name": "case.stalled_since",
      "key": "date_stalled_since",
      "sub_group": "date_stalled_since",
      "human_label": "Opgeschort sinds",
      "attribute_type": "date"
    }
  ],
  "requestor": [
    {
      "name": "case.requestor.street",
      "key": "street",
      "sub_group": "requestor",
      "human_label": "Aanvrager Straat",
      "attribute_type": "text"
    },
    {
      "name": "case.requestor.house_number",
      "key": "house_number",
      "sub_group": "requestor",
      "human_label": "Aanvrager Huisnummer",
      "attribute_type": "text"
    },
    {
      "name": "case.requestor.place_of_residence",
      "key": "place_of_residence",
      "sub_group": "requestor",
      "human_label": "Aanvrager Woonplaats",
      "attribute_type": "text"
    },
    {
      "name": "case.requestor.family_name",
      "key": "surname",
      "sub_group": "requestor",
      "human_label": "Aanvrager Geslachtsnaam",
      "attribute_type": "text"
    },
    {
      "name": "case.requestor.gender",
      "key": "gender",
      "sub_group": "requestor",
      "human_label": "Aanvrager Geslacht",
      "attribute_type": "text"
    },
    {
      "name": "case.requestor.salutation",
      "key": "salutation",
      "sub_group": "requestor",
      "human_label": "Aanvrager Aanhef",
      "attribute_type": "text"
    },
    {
      "name": "case.requestor.uuid",
      "key": "uuid",
      "sub_group": "requestor",
      "human_label": "Aanvrager ID (oud)",
      "attribute_type": "text"
    },
    {
      "name": "case.requestor.residence_zipcode",
      "key": "residence_zipcode",
      "sub_group": "requestor",
      "human_label": "Aanvrager Verblijfplaats postcode",
      "attribute_type": "text"
    },
    {
      "name": "case.requestor.surname",
      "key": "surname",
      "sub_group": "requestor",
      "human_label": "Aanvrager Achternaam",
      "attribute_type": "text"
    },
    {
      "name": "case.requestor.zipcode",
      "key": "zipcode",
      "sub_group": "requestor",
      "human_label": "Aanvrager Postcode",
      "attribute_type": "text"
    },
    {
      "name": "case.requestor.residence_house_number",
      "key": "residence_house_number",
      "sub_group": "requestor",
      "human_label": "Aanvrager Verblijfplaats huisnummer",
      "attribute_type": "text"
    },
    {
      "name": "case.requestor.residence_street",
      "key": "residence_street",
      "sub_group": "requestor",
      "human_label": "Aanvrager Verblijfplaats straat",
      "attribute_type": "text"
    },
    {
      "name": "case.requestor.naamgebruik",
      "key": "used_name",
      "sub_group": "requestor",
      "human_label": "Aanvrager Naamgebruik",
      "attribute_type": "text"
    },
    {
      "name": "case.requestor.full_name",
      "key": "full_name",
      "sub_group": "requestor",
      "human_label": "Aanvrager Volledige naam",
      "attribute_type": "text"
    },
    {
      "name": "case.requestor.first_names",
      "key": "first_names",
      "sub_group": "requestor",
      "human_label": "Aanvrager Aanvrager Voornamen",
      "attribute_type": "text"
    },
    {
      "name": "case.requestor.bsn",
      "key": "burgerservicenummer",
      "sub_group": "requestor",
      "human_label": "Aanvrager Burgerservicenummer",
      "attribute_type": "text"
    },
    {
      "name": "case.requestor.status",
      "key": "status",
      "sub_group": "requestor",
      "human_label": "Aanvrager Status",
      "attribute_type": "text"
    },
    {
      "name": "case.requestor.initials",
      "key": "initials",
      "sub_group": "requestor",
      "human_label": "Aanvrager Initialen",
      "attribute_type": "text"
    },
    {
      "name": "case.requestor.noble_title",
      "key": "noble_title",
      "sub_group": "requestor",
      "human_label": "Aanvrager Adellijke titel",
      "attribute_type": "text"
    },
    {
      "name": "case.requestor.surname_prefix",
      "key": "surname_prefix",
      "sub_group": "requestor",
      "human_label": "Aanvrager  Voorvoegsel",
      "attribute_type": "text"
    },
    {
      "name": "case.requestor.mobile_number",
      "key": "mobile_number",
      "sub_group": "requestor",
      "human_label": "Aanvrager  Telefoonnummer (mobiel)",
      "attribute_type": "text"
    },
    {
      "name": "case.requestor.email",
      "key": "email",
      "sub_group": "requestor",
      "human_label": "Aanvrager E-mailadres",
      "attribute_type": "text"
    },
    {
      "name": "case.requestor.phone_number",
      "key": "phone_number",
      "sub_group": "requestor",
      "human_label": "Aanvrager Telefoonnummer",
      "attribute_type": "text"
    },
    {
      "name": "case.requestor.foreign_residence_address_line1",
      "key": "foreign_residence_address_line1",
      "sub_group": "requestor",
      "human_label": "Aanvrager Adresregel 1 verblijf buitenland",
      "attribute_type": "text"
    },
    {
      "name": "case.requestor.correspondence_house_number",
      "key": "correspondence_house_number",
      "sub_group": "requestor",
      "human_label": "Aanvrager Correspondentie huisnummer",
      "attribute_type": "text"
    },
    {
      "name": "case.requestor.correspondence_zipcode",
      "key": "correspondence_zipcode",
      "sub_group": "requestor",
      "human_label": "Aanvrager Correspondentie postcode",
      "attribute_type": "text"
    },
    {
      "name": "case.requestor.password",
      "key": "password",
      "sub_group": "requestor",
      "human_label": "Aanvrager Wachtwoor",
      "attribute_type": "text"
    },
    {
      "name": "case.requestor.investigation",
      "key": "investigation",
      "sub_group": "requestor",
      "human_label": "Aanvrager In onderzoek",
      "attribute_type": "text"
    },
    {
      "name": "case.requestor.country_of_birth",
      "key": "country_of_birth",
      "sub_group": "requestor",
      "human_label": "Aanvrager Geboorteland",
      "attribute_type": "text"
    },
    {
      "name": "case.requestor.date_of_marriage",
      "key": "date_of_marriage",
      "sub_group": "requestor",
      "human_label": "Aanvrager Huwelijksdatumd",
      "attribute_type": "text"
    },
    {
      "name": "case.requestor.correspondence_place_of_residence",
      "key": "correspondence_place_of_residence",
      "sub_group": "requestor",
      "human_label": "Aanvrager Correspondentie woonplaats",
      "attribute_type": "text"
    },
    {
      "name": "case.requestor.place_of_birth",
      "key": "place_of_birth",
      "sub_group": "requestor",
      "human_label": "Aanvrager Geboorteplaats",
      "attribute_type": "text"
    },
    {
      "name": "case.requestor.a_number",
      "key": "a_number",
      "sub_group": "requestor",
      "human_label": "Aanvrager A Nummer",
      "attribute_type": "text"
    },
    {
      "name": "case.requestor.correspondence_street",
      "key": "correspondence_street",
      "sub_group": "requestor",
      "human_label": "Aanvrager Correspondentie straat",
      "attribute_type": "text"
    },
    {
      "name": "case.requestor.coc",
      "key": "coc",
      "sub_group": "requestor",
      "human_label": "Aanvrager KvK-nummer",
      "attribute_type": "text"
    },
    {
      "name": "case.requestor.coc",
      "key": "coc",
      "sub_group": "requestor",
      "human_label": "Aanvrager KvK-nummer",
      "attribute_type": "text"
    },
    {
      "name": "case.requestor.type_of_business_entity",
      "key": "type_of_business_entity",
      "sub_group": "requestor",
      "human_label": "Aanvrager Rechtsvorm",
      "attribute_type": "text"
    },
    {
      "name": "case.requestor.login",
      "key": "login",
      "sub_group": "requestor",
      "human_label": "Aanvrager Rechtsvorm",
      "attribute_type": "text"
    },
    {
      "name": "case.requestor.foreign_residence_address_line2",
      "key": "foreign_residence_address_line2",
      "sub_group": "requestor",
      "human_label": "Aanvrager Adresregel 2 verblijf buitenland",
      "attribute_type": "text"
    },
    {
      "name": "case.requestor.establishment_number",
      "key": "establishment_number",
      "sub_group": "requestor",
      "human_label": "Aanvrager Vestigingsnummer",
      "attribute_type": "text"
    },
    {
      "name": "case.requestor.foreign_residence_address_line3",
      "key": "foreign_residence_address_line3",
      "sub_group": "requestor",
      "human_label": "Aanvrager Adresregel 3 verblijf buitenland",
      "attribute_type": "text"
    },
    {
      "name": "case.requestor.salutation1",
      "key": "salutation1",
      "sub_group": "requestor",
      "human_label": "Aanvrager Aanhef 1",
      "attribute_type": "text"
    },
    {
      "name": "case.requestor.name",
      "key": "name",
      "sub_group": "requestor",
      "human_label": "Aanvrager Naa",
      "attribute_type": "text"
    },
    {
      "name": "case.requestor.id",
      "key": "unique_name",
      "sub_group": "requestor",
      "human_label": "Aanvragernummer",
      "attribute_type": "text"
    },
    {
      "name": "case.requestor.trade_name",
      "key": "trade_name",
      "sub_group": "requestor",
      "human_label": "Aanvrager Handelsnaam",
      "attribute_type": "text"
    },
    {
      "name": "case.requestor.title",
      "key": "title",
      "sub_group": "requestor",
      "human_label": "Aanvrager functie",
      "attribute_type": "text"
    },
    {
      "name": "case.requestor.has_correspondence_address",
      "key": "has_correspondence_address",
      "sub_group": "requestor",
      "human_label": "Aanvrager Heeft briefadres",
      "attribute_type": "text"
    },
    {
      "name": "case.requestor.is_secret",
      "key": "is_secret",
      "sub_group": "requestor",
      "human_label": "Aanvrager Heeft indicatie 'geheim'",
      "attribute_type": "text"
    },
    {
      "name": "case.requestor.department",
      "key": "department",
      "sub_group": "requestor",
      "human_label": "Aanvrager Afdeling",
      "attribute_type": "text"
    },
    {
      "name": "case.requestor.country_of_residence",
      "key": "country_of_residence",
      "sub_group": "requestor",
      "human_label": "Aanvrager Vestigingsland",
      "attribute_type": "text"
    },
    {
      "name": "case.requestor.date_of_divorce",
      "key": "date_of_divorce",
      "sub_group": "requestor",
      "human_label": "Aanvrager Datum ontbinding partnerschap",
      "attribute_type": "text"
    },
    {
      "name": "case.requestor.subject_type",
      "key": "subject_type",
      "sub_group": "requestor",
      "human_label": "Aanvrager Betrokkenetype",
      "attribute_type": "text"
    }
  ],
  "requestor_snapshot": [
    {
      "name": "case.requestor_snapshot.street",
      "key": "street",
      "sub_group": "requestor",
      "human_label": "Aanvrager Straat",
      "attribute_type": "text"
    },
    {
      "name": "case.requestor_snapshot.house_number",
      "key": "house_number",
      "sub_group": "requestor",
      "human_label": "Aanvrager Huisnummer",
      "attribute_type": "text"
    },
    {
      "name": "case.requestor_snapshot.place_of_residence",
      "key": "place_of_residence",
      "sub_group": "requestor",
      "human_label": "Aanvrager Woonplaats",
      "attribute_type": "text"
    },
    {
      "name": "case.requestor_snapshot.family_name",
      "key": "surname",
      "sub_group": "requestor",
      "human_label": "Aanvrager Geslachtsnaam",
      "attribute_type": "text"
    },
    {
      "name": "case.requestor_snapshot.gender",
      "key": "gender",
      "sub_group": "requestor",
      "human_label": "Aanvrager Geslacht",
      "attribute_type": "text"
    },
    {
      "name": "case.requestor_snapshot.salutation",
      "key": "salutation",
      "sub_group": "requestor",
      "human_label": "Aanvrager Aanhef",
      "attribute_type": "text"
    },
    {
      "name": "case.requestor_snapshot.uuid",
      "key": "uuid",
      "sub_group": "requestor",
      "human_label": "Aanvrager ID (oud)",
      "attribute_type": "text"
    },
    {
      "name": "case.requestor_snapshot.residence_zipcode",
      "key": "residence_zipcode",
      "sub_group": "requestor",
      "human_label": "Aanvrager Verblijfplaats postcode",
      "attribute_type": "text"
    },
    {
      "name": "case.requestor_snapshot.surname",
      "key": "surname",
      "sub_group": "requestor",
      "human_label": "Aanvrager Achternaam",
      "attribute_type": "text"
    },
    {
      "name": "case.requestor_snapshot.zipcode",
      "key": "zipcode",
      "sub_group": "requestor",
      "human_label": "Aanvrager Postcode",
      "attribute_type": "text"
    },
    {
      "name": "case.requestor_snapshot.residence_house_number",
      "key": "residence_house_number",
      "sub_group": "requestor",
      "human_label": "Aanvrager Verblijfplaats huisnummer",
      "attribute_type": "text"
    },
    {
      "name": "case.requestor_snapshot.residence_street",
      "key": "residence_street",
      "sub_group": "requestor",
      "human_label": "Aanvrager Verblijfplaats straat",
      "attribute_type": "text"
    },
    {
      "name": "case.requestor_snapshot.naamgebruik",
      "key": "used_name",
      "sub_group": "requestor",
      "human_label": "Aanvrager Naamgebruik",
      "attribute_type": "text"
    },
    {
      "name": "case.requestor_snapshot.full_name",
      "key": "full_name",
      "sub_group": "requestor",
      "human_label": "Aanvrager Volledige naam",
      "attribute_type": "text"
    },
    {
      "name": "case.requestor_snapshot.first_names",
      "key": "first_names",
      "sub_group": "requestor",
      "human_label": "Aanvrager Aanvrager Voornamen",
      "attribute_type": "text"
    },
    {
      "name": "case.requestor_snapshot.bsn",
      "key": "burgerservicenummer",
      "sub_group": "requestor",
      "human_label": "Aanvrager Burgerservicenummer",
      "attribute_type": "text"
    },
    {
      "name": "case.requestor_snapshot.status",
      "key": "status",
      "sub_group": "requestor",
      "human_label": "Aanvrager Status",
      "attribute_type": "text"
    },
    {
      "name": "case.requestor_snapshot.initials",
      "key": "initials",
      "sub_group": "requestor",
      "human_label": "Aanvrager Initialen",
      "attribute_type": "text"
    },
    {
      "name": "case.requestor_snapshot.noble_title",
      "key": "noble_title",
      "sub_group": "requestor",
      "human_label": "Aanvrager Adellijke titel",
      "attribute_type": "text"
    },
    {
      "name": "case.requestor_snapshot.surname_prefix",
      "key": "surname_prefix",
      "sub_group": "requestor",
      "human_label": "Aanvrager  Voorvoegsel",
      "attribute_type": "text"
    },
    {
      "name": "case.requestor_snapshot.mobile_number",
      "key": "mobile_number",
      "sub_group": "requestor",
      "human_label": "Aanvrager  Telefoonnummer (mobiel)",
      "attribute_type": "text"
    },
    {
      "name": "case.requestor_snapshot.email",
      "key": "email",
      "sub_group": "requestor",
      "human_label": "Aanvrager E-mailadres",
      "attribute_type": "text"
    },
    {
      "name": "case.requestor_snapshot.phone_number",
      "key": "phone_number",
      "sub_group": "requestor",
      "human_label": "Aanvrager Telefoonnummer",
      "attribute_type": "text"
    },
    {
      "name": "case.requestor_snapshot.foreign_residence_address_line1",
      "key": "foreign_residence_address_line1",
      "sub_group": "requestor",
      "human_label": "Aanvrager Adresregel 1 verblijf buitenland",
      "attribute_type": "text"
    },
    {
      "name": "case.requestor_snapshot.correspondence_house_number",
      "key": "correspondence_house_number",
      "sub_group": "requestor",
      "human_label": "Aanvrager Correspondentie huisnummer",
      "attribute_type": "text"
    },
    {
      "name": "case.requestor_snapshot.correspondence_zipcode",
      "key": "correspondence_zipcode",
      "sub_group": "requestor",
      "human_label": "Aanvrager Correspondentie postcode",
      "attribute_type": "text"
    },
    {
      "name": "case.requestor_snapshot.password",
      "key": "password",
      "sub_group": "requestor",
      "human_label": "Aanvrager Wachtwoor",
      "attribute_type": "text"
    },
    {
      "name": "case.requestor_snapshot.investigation",
      "key": "investigation",
      "sub_group": "requestor",
      "human_label": "Aanvrager In onderzoek",
      "attribute_type": "text"
    },
    {
      "name": "case.requestor_snapshot.country_of_birth",
      "key": "country_of_birth",
      "sub_group": "requestor",
      "human_label": "Aanvrager Geboorteland",
      "attribute_type": "text"
    },
    {
      "name": "case.requestor_snapshot.date_of_marriage",
      "key": "date_of_marriage",
      "sub_group": "requestor",
      "human_label": "Aanvrager Huwelijksdatumd",
      "attribute_type": "text"
    },
    {
      "name": "case.requestor_snapshot.correspondence_place_of_residence",
      "key": "correspondence_place_of_residence",
      "sub_group": "requestor",
      "human_label": "Aanvrager Correspondentie woonplaats",
      "attribute_type": "text"
    },
    {
      "name": "case.requestor_snapshot.place_of_birth",
      "key": "place_of_birth",
      "sub_group": "requestor",
      "human_label": "Aanvrager Geboorteplaats",
      "attribute_type": "text"
    },
    {
      "name": "case.requestor_snapshot.a_number",
      "key": "a_number",
      "sub_group": "requestor",
      "human_label": "Aanvrager A Nummer",
      "attribute_type": "text"
    },
    {
      "name": "case.requestor_snapshot.correspondence_street",
      "key": "correspondence_street",
      "sub_group": "requestor",
      "human_label": "Aanvrager Correspondentie straat",
      "attribute_type": "text"
    },
    {
      "name": "case.requestor_snapshot.coc",
      "key": "coc",
      "sub_group": "requestor",
      "human_label": "Aanvrager KvK-nummer",
      "attribute_type": "text"
    },
    {
      "name": "case.requestor_snapshot.coc",
      "key": "coc",
      "sub_group": "requestor",
      "human_label": "Aanvrager KvK-nummer",
      "attribute_type": "text"
    },
    {
      "name": "case.requestor_snapshot.type_of_business_entity",
      "key": "type_of_business_entity",
      "sub_group": "requestor",
      "human_label": "Aanvrager Rechtsvorm",
      "attribute_type": "text"
    },
    {
      "name": "case.requestor_snapshot.login",
      "key": "login",
      "sub_group": "requestor",
      "human_label": "Aanvrager Rechtsvorm",
      "attribute_type": "text"
    },
    {
      "name": "case.requestor_snapshot.foreign_residence_address_line2",
      "key": "foreign_residence_address_line2",
      "sub_group": "requestor",
      "human_label": "Aanvrager Adresregel 2 verblijf buitenland",
      "attribute_type": "text"
    },
    {
      "name": "case.requestor_snapshot.establishment_number",
      "key": "establishment_number",
      "sub_group": "requestor",
      "human_label": "Aanvrager Vestigingsnummer",
      "attribute_type": "text"
    },
    {
      "name": "case.requestor_snapshot.foreign_residence_address_line3",
      "key": "foreign_residence_address_line3",
      "sub_group": "requestor",
      "human_label": "Aanvrager Adresregel 3 verblijf buitenland",
      "attribute_type": "text"
    },
    {
      "name": "case.requestor_snapshot.salutation1",
      "key": "salutation1",
      "sub_group": "requestor",
      "human_label": "Aanvrager Aanhef 1",
      "attribute_type": "text"
    },
    {
      "name": "case.requestor_snapshot.name",
      "key": "name",
      "sub_group": "requestor",
      "human_label": "Aanvrager Naa",
      "attribute_type": "text"
    },
    {
      "name": "case.requestor_snapshot.id",
      "key": "unique_name",
      "sub_group": "requestor",
      "human_label": "Aanvragernummer",
      "attribute_type": "text"
    },
    {
      "name": "case.requestor_snapshot.trade_name",
      "key": "trade_name",
      "sub_group": "requestor",
      "human_label": "Aanvrager Handelsnaam",
      "attribute_type": "text"
    },
    {
      "name": "case.requestor_snapshot.title",
      "key": "title",
      "sub_group": "requestor",
      "human_label": "Aanvrager functie",
      "attribute_type": "text"
    },
    {
      "name": "case.requestor_snapshot.has_correspondence_address",
      "key": "has_correspondence_address",
      "sub_group": "requestor",
      "human_label": "Aanvrager Heeft briefadres",
      "attribute_type": "text"
    },
    {
      "name": "case.requestor_snapshot.is_secret",
      "key": "is_secret",
      "sub_group": "requestor",
      "human_label": "Aanvrager Heeft indicatie 'geheim'",
      "attribute_type": "text"
    },
    {
      "name": "case.requestor_snapshot.department",
      "key": "department",
      "sub_group": "requestor",
      "human_label": "Aanvrager Afdeling",
      "attribute_type": "text"
    },
    {
      "name": "case.requestor_snapshot.country_of_residence",
      "key": "country_of_residence",
      "sub_group": "requestor",
      "human_label": "Aanvrager Vestigingsland",
      "attribute_type": "text"
    },
    {
      "name": "case.requestor_snapshot.date_of_divorce",
      "key": "date_of_divorce",
      "sub_group": "requestor",
      "human_label": "Aanvrager Datum ontbinding partnerschap",
      "attribute_type": "text"
    },
    {
      "name": "case.requestor_snapshot.subject_type",
      "key": "subject_type",
      "sub_group": "requestor",
      "human_label": "Aanvrager Betrokkenetype",
      "attribute_type": "text"
    }
  ],
  "casetype": [
    {
      "name": "case.casetype.version",
      "key": "version",
      "sub_group": "case_type",
      "human_label": "Zaaktypeversie",
      "attribute_type": "integer"
    },
    {
      "name": "case.casetype.name",
      "key": "name",
      "sub_group": "case_type",
      "human_label": "Zaaktype",
      "attribute_type": "text"
    },
    {
      "name": "case.casetype.version_date_of_creation",
      "key": "created",
      "sub_group": "case_type",
      "human_label": "Zaaktypeversie begindatum",
      "attribute_type": "text"
    },
    {
      "name": "case.casetype.version_date_of_expiration",
      "key": "deleted",
      "sub_group": "case_type",
      "human_label": "Zaaktypeversie begindatum",
      "attribute_type": "text"
    },
    {
      "name": "case.casetype.id",
      "key": "case_type_id",
      "sub_group": "ids_related_to_case",
      "human_label": "Zaaktypenummer",
      "attribute_type": "text"
    },
    {
      "name": "case.casetype.initiator_source",
      "key": "initiator_source",
      "sub_group": "case_type",
      "human_label": "Trigger",
      "attribute_type": "text"
    },
    {
      "name": "case.casetype.identification",
      "key": "identification",
      "sub_group": "case_type",
      "human_label": "Identificatie",
      "attribute_type": "text"
    },
    {
      "name": "case.casetype.supervisor_relation",
      "key": "responsible_relationship",
      "sub_group": "case_type_metadata",
      "human_label": "Verantwoordingsrelatie",
      "attribute_type": "text"
    },
    {
      "name": "case.casetype.extension_period",
      "key": "extension_period",
      "sub_group": "case_type_metadata",
      "human_label": "Verlengingstermijn",
      "attribute_type": "text"
    },
    {
      "name": "case.casetype.price.counter",
      "key": "frontdesk",
      "sub_group": "case_type_payment",
      "human_label": "Tarief (balie)",
      "attribute_type": "text"
    },
    {
      "name": "case.casetype.price.telephone",
      "key": "phone",
      "sub_group": "case_type_payment",
      "human_label": "Tarief (telefoon)",
      "attribute_type": "text"
    },
    {
      "name": "case.casetype.price.email",
      "key": "mail",
      "sub_group": "case_type_payment",
      "human_label": "Tarief (email)",
      "attribute_type": "text"
    },
    {
      "name": "case.casetype.price.post",
      "key": "post",
      "sub_group": "case_type_payment",
      "human_label": "Tarief (post)",
      "attribute_type": "text"
    },
    {
      "name": "case.casetype.price.employee",
      "key": "assignee",
      "sub_group": "case_type_payment",
      "human_label": "Tarief (behandelaar)",
      "attribute_type": "text"
    },
    {
      "name": "case.casetype.price.web",
      "key": "webform",
      "sub_group": "case_type_payment",
      "human_label": "Tarief (web)",
      "attribute_type": "text"
    },
    {
      "name": "case.casetype.archive_classification_code",
      "key": "archive_classification_code",
      "sub_group": "case_type_metadata",
      "human_label": "Archiefclassificatiecode",
      "attribute_type": "text"
    },
    {
      "name": "case.casetype.motivation",
      "key": "motivation",
      "sub_group": "case_type_metadata",
      "human_label": "Aanleiding",
      "attribute_type": "text"
    },
    {
      "name": "case.casetype.objection_and_appeal",
      "key": "possibility_for_objection_and_appeal",
      "sub_group": "case_type_metadata",
      "human_label": "Beroep mogelijk",
      "attribute_type": "text"
    },
    {
      "name": "case.casetype.goal",
      "key": "purpose",
      "sub_group": "case_type_metadata",
      "human_label": "Doel",
      "attribute_type": "text"
    },
    {
      "name": "case.casetype.lex_silencio_positivo",
      "key": "lex_silencio_positivo",
      "sub_group": "case_type_metadata",
      "human_label": "Lex Silencio Positivo",
      "attribute_type": "text"
    },
    {
      "name": "case.casetype.supervisor",
      "key": "responsible_subject",
      "sub_group": "case_type_metadata",
      "human_label": "Verantwoordelijke",
      "attribute_type": "text"
    },
    {
      "name": "case.casetype.penalty",
      "key": "penalty_law",
      "sub_group": "case_type_metadata",
      "human_label": "Wet dwangsom",
      "attribute_type": "text"
    },
    {
      "name": "case.casetype.wkpb",
      "key": "wkpb_applies",
      "sub_group": "case_type_metadata",
      "human_label": "WKPB",
      "attribute_type": "text"
    },
    {
      "name": "case.casetype.adjourn_period",
      "key": "adjourn_period",
      "sub_group": "case_type_metadata",
      "human_label": "Verdagingstermijn",
      "attribute_type": "text"
    },
    {
      "name": "case.casetype.publication",
      "key": "publication",
      "sub_group": "case_type_metadata",
      "human_label": "Publicatie",
      "attribute_type": "text"
    },
    {
      "name": "case.casetype.suspension",
      "key": "may_postpone",
      "sub_group": "case_type_metadata",
      "human_label": "Opschorten mogelijk",
      "attribute_type": "text"
    },
    {
      "name": "case.casetype.designation_of_confidentiality",
      "key": "designation_of_confidentiality",
      "sub_group": "case_type_metadata",
      "human_label": "Vertrouwelijkheidsaanduiding",
      "attribute_type": "text"
    },
    {
      "name": "case.casetype.text_for_publication",
      "key": "publication_text",
      "sub_group": "case_type_metadata",
      "human_label": "Publicatietekst",
      "attribute_type": "text"
    },
    {
      "name": "case.casetype.extension",
      "key": "may_extend",
      "sub_group": "case_type_metadata",
      "human_label": "Verlenging mogelijk",
      "attribute_type": "text"
    },
    {
      "name": "case.casetype.principle_local",
      "key": "local_basis",
      "sub_group": "case_type_metadata",
      "human_label": "Lokale grondslag",
      "attribute_type": "text"
    },
    {
      "name": "case.casetype.eform",
      "key": "e_webform",
      "sub_group": "case_type_metadata",
      "human_label": "E-Formulier",
      "attribute_type": "text"
    },
    {
      "name": "case.casetype.process_description",
      "key": "process_description",
      "sub_group": "case_type_metadata",
      "human_label": "Procesbeschrijving",
      "attribute_type": "text"
    },
    {
      "name": "case.casetype.publicity",
      "key": "is_public",
      "sub_group": "case_type_settings",
      "human_label": "Openbaarheid",
      "attribute_type": "text"
    },
    {
      "name": "case.casetype.initiator_type",
      "key": "initiator_type",
      "sub_group": "case_type",
      "human_label": "Handelingsinitiator",
      "attribute_type": "text"
    },
    {
      "name": "case.casetype.keywords",
      "key": "tags",
      "sub_group": "case_type",
      "human_label": "Trefwoorden",
      "attribute_type": "text"
    },
    {
      "name": "case.casetype.description",
      "key": "description",
      "sub_group": "case_type",
      "human_label": "Omschrijving of toelichting",
      "attribute_type": "text"
    },
    {
      "name": "case.casetype.registration_bag",
      "key": "bag",
      "sub_group": "case_type_metadata",
      "human_label": "Basisregistraties Adressen en Gebouwen",
      "attribute_type": "text"
    },
    {
      "name": "case.principle_national",
      "key": "local_basis",
      "sub_group": "case_type_metadata",
      "human_label": "Wettelijke grondslag",
      "attribute_type": "text"
    },
    {
      "name": "case.casetype.lead_time_service",
      "key": "service",
      "sub_group": "casetype_lead_time",
      "human_label": "Doorlooptijd (service)",
      "attribute_type": "text"
    },
    {
      "name": "case.casetype.lead_time_legal",
      "key": "legal",
      "sub_group": "casetype_lead_time",
      "human_label": "Doorlooptijd (wettelijk)",
      "attribute_type": "text"
    },
    {
      "name": "case.casetype.generic_category",
      "key": "name",
      "sub_group": "case_type_folder",
      "human_label": "Categorie (generiek)",
      "attribute_type": "text"
    }
  ],
  "node_id": [
    {
      "name": "case.casetype.node.id",
      "key": "case_type_node_id",
      "sub_group": "ids_related_to_case",
      "human_label": "Zaaktypenodenummer",
      "attribute_type": "integer"
    }
  ],
  "subject": [
    {
      "name": "case.subject",
      "key": "subject",
      "sub_group": "case",
      "human_label": "Zaakonderwerp",
      "attribute_type": "text"
    }
  ],
  "subject_external": [
    {
      "name": "case.subject",
      "key": "subject_extern",
      "sub_group": "case",
      "human_label": "Zaakonderwerp",
      "attribute_type": "text"
    }
  ],
  "casetype_id": [
    {
      "name": "case.casetype",
      "key": "case_type_uuid",
      "sub_group": "case_type",
      "human_label": "Zaaktype referentie",
      "attribute_type": "text"
    }
  ],
  "contact_channel": [
    {
      "name": "case.channel_of_contact",
      "key": "contact_channel",
      "sub_group": "case",
      "human_label": "Contactkanaal",
      "attribute_type": "text"
    }
  ],
  "start_date": [
    {
      "name": "case.startdate",
      "key": "registration_date",
      "sub_group": "case",
      "human_label": "Startdatum",
      "attribute_type": "text"
    }
  ],
  "number": [
    {
      "name": "case.number",
      "key": "id",
      "sub_group": "case",
      "human_label": "Zaaknummer",
      "attribute_type": "integer"
    }
  ],
  "status": [
    {
      "name": "case.status",
      "key": "status",
      "sub_group": "status",
      "human_label": "Status",
      "attribute_type": "text"
    }
  ],
  "milestone": [
    {
      "name": "case.milestone",
      "key": "milestone",
      "sub_group": "status",
      "human_label": "Zaak mijlpaal",
      "attribute_type": "text"
    },
    {
      "name": "case.number_status",
      "key": "status_number",
      "sub_group": "status",
      "human_label": "Statusnummer",
      "attribute_type": "integer"
    }
  ],
  "phase": [
    {
      "name": "case.phase",
      "key": "phase",
      "sub_group": "status",
      "human_label": "Zaak fase",
      "attribute_type": "text"
    }
  ],
  "progress_status": [
    {
      "name": "case.progress_status",
      "key": "progress_status",
      "sub_group": "status",
      "human_label": "Voortgang status",
      "attribute_type": "integer"
    }
  ],
  "number_root": [
    {
      "name": "case.number_master",
      "key": "id",
      "sub_group": "case",
      "human_label": "Zaaknummer hoofdzaak",
      "attribute_type": "integer"
    }
  ],
  "department": [
    {
      "name": "case.casetype.department",
      "key": "name",
      "sub_group": "department",
      "human_label": "Afdeling",
      "attribute_type": "text"
    }
  ],
  "route": [
    {
      "name": "case.route_ou",
      "key": "department_id",
      "sub_group": "ids_related_to_case",
      "human_label": "Intaketoewijzing (groep)",
      "attribute_type": "text"
    },
    {
      "name": "case.route_role",
      "key": "role_id",
      "sub_group": "ids_related_to_case",
      "human_label": "Intaketoewijzing (rol)",
      "attribute_type": "text"
    }
  ],
  "date_target": [
    {
      "name": "case.date_target",
      "key": "target_completion_date",
      "sub_group": "case",
      "human_label": "Streefafhandeldatum",
      "attribute_type": "timestamp_or_text"
    }
  ],
  "date_of_registration": [
    {
      "name": "case.date_of_registration",
      "key": "registration_date",
      "sub_group": "case",
      "human_label": "Registratiedatum",
      "attribute_type": "date"
    }
  ],
  "confidentiality": [
    {
      "name": "case.confidentiality",
      "key": "confidentiality",
      "sub_group": "confidentiality",
      "human_label": "Vertrouwelijkheid",
      "attribute_type": "text"
    }
  ],
  "price": [
    {
      "name": "case.price",
      "key": "price",
      "sub_group": "price",
      "human_label": "Zaakbedrag",
      "attribute_type": "text"
    }
  ],
  "payment_status": [
    {
      "name": "case.payment_status",
      "key": "payment_status",
      "sub_group": "payment_status",
      "human_label": "Betaalstatus",
      "attribute_type": "text"
    }
  ],
  "unaccepted_update_count": [
    {
      "name": "case.num_unaccepted_updates",
      "key": "unaccepted_update_count",
      "sub_group": "unaccepted_update_count",
      "human_label": "Ongeaccepteerde PIP updates",
      "attribute_type": "integer"
    }
  ],
  "unaccepted_document_count": [
    {
      "name": "case.num_unaccepted_files",
      "key": "unaccepted_document_count",
      "sub_group": "unaccepted_document_count",
      "human_label": "Ongeaccepteerde bestanden",
      "attribute_type": "integer"
    }
  ],
  "aggregation_scope": [
    {
      "name": "case.aggregation_scope",
      "key": "aggregation_scope",
      "sub_group": "aggregation_scope",
      "human_label": "Aggregatieniveau",
      "attribute_type": "text"
    }
  ],
  "premature_completion_rationale": [
    {
      "name": "case.premature_completion_rationale",
      "key": "premature_completion_rationale",
      "sub_group": "premature_completion_rationale",
      "human_label": "Reden vroegtijdig afhandelen",
      "attribute_type": "text"
    }
  ],
  "alternative_case_number": [
    {
      "name": "case.custom_number",
      "key": "alternative_case_number",
      "sub_group": "alternative_case_number",
      "human_label": "Alternatief zaaknummer",
      "attribute_type": "text"
    }
  ],
  "related_uuids": [
    {
      "name": "case.related_uuids",
      "key": "related_uuids",
      "sub_group": "related_uuids",
      "human_label": "Related objects",
      "attribute_type": "text"
    }
  ],
  "linked_case_numbers": [
    {
      "name": "case.related_cases",
      "key": "linked_case_numbers",
      "sub_group": "linked_case_numbers",
      "human_label": "Zaakrelaties",
      "attribute_type": "text"
    }
  ],
  "related_case_numbers": [
    {
      "name": "case.relations",
      "key": "related_case_numbers",
      "sub_group": "related_case_numbers",
      "human_label": "Alle relaties",
      "attribute_type": "text"
    }
  ],
  "number_previous": [
    {
      "name": "case.number_previous",
      "key": "number_previous",
      "sub_group": "number_previous",
      "human_label": "Vervolg van",
      "attribute_type": "integer"
    }
  ],
  "number_parent": [
    {
      "name": "case.number_parent",
      "key": "number_parent",
      "sub_group": "number_parent",
      "human_label": "PID",
      "attribute_type": "integer"
    }
  ],
  "parent_uuid": [
    {
      "name": "case.parent_uuid",
      "key": "parent_uuid",
      "sub_group": "parent_uuid",
      "human_label": "Parent object",
      "attribute_type": "text"
    }
  ],
  "child_uuids": [
    {
      "name": "case.child_uuids",
      "key": "child_uuids",
      "sub_group": "child_uuids",
      "human_label": "Child objects",
      "attribute_type": "text"
    }
  ]
}